<?xml version="1.0" encoding="UTF-8"?>
<!--  Eclipse Predictions by Fred Espenak,NASA's GSFC -->
<!--  converted to KML by Hans van der Meer -->
<!--  4 August 2007 -->
<kml xmlns="http://earth.google.com/kml/2.1">
<Folder>
	<name>Total Solar Eclipse 13 November 2012</name>
	<Placemark>
		<name>Umbral path</name>
		<Style>
			<LineStyle>
				<color>ffff0000</color>
			</LineStyle>
		</Style>
		<MultiGeometry>
			<LineString>
				<tessellate>1</tessellate>
				<altitudeMode>clampedToGround</altitudeMode>
				<coordinates>
141.955,-14.48,0 144.4766667,-15.47,0 146.4633333,-16.28,0 148.145,-16.985,0 149.625,-17.62166667,0 150.9566667,-18.20666667,0 152.1766667,-18.75333333,0 153.3066667,-19.26666667,0 154.3633333,-19.75333333,0 155.3583333,-20.21833333,0 156.3,-20.66333333,0 157.1966667,-21.09166667,0 158.0533333,-21.50333333,0 158.8766667,-21.90333333,0 159.6666667,-22.29,0 160.43,-22.665,0 161.1683333,-23.03166667,0 161.8833333,-23.38666667,0 162.5783333,-23.735,0 163.255,-24.075,0 163.9133333,-24.40666667,0 164.555,-24.73,0 165.1833333,-25.04833333,0 165.7966667,-25.36,0 166.3983333,-25.66666667,0 166.9883333,-25.96666667,0 167.5666667,-26.26166667,0 168.135,-26.55,0 168.6933333,-26.835,0 169.2433333,-27.115,0 169.785,-27.39,0 170.32,-27.66166667,0 170.8466667,-27.92833333,0 171.3666667,-28.19,0 171.8783333,-28.45,0 172.3866667,-28.705,0 172.8866667,-28.95666667,0 173.3833333,-29.20333333,0 173.8733333,-29.44833333,0 174.36,-29.69,0 174.8416667,-29.92666667,0 175.32,-30.16166667,0 175.7933333,-30.39333333,0 176.2616667,-30.62166667,0 176.7283333,-30.84666667000001,0 177.1916667,-31.07,0 177.6516667,-31.29,0 178.1083333,-31.50666667,0 178.5616667,-31.72166667,0 179.0133333,-31.93166667,0 179.4633333,-32.14166667,0 179.91,-32.34833333,0 -179.645,-32.55166667,0 -179.2016667,-32.75333333,0 -178.76,-32.95166667,0 -178.3216667,-33.14833333,0 -177.8833333,-33.34166667,0 -177.4466667,-33.53333333,0 -177.01,-33.72166667,0 -176.5766667,-33.91,0 -176.1433333,-34.09333333,0 -175.71,-34.27666667,0 -175.2783333,-34.45666667,0 -174.8483333,-34.63333333,0 -174.4183333,-34.81,0 -173.9883333,-34.98333333,0 -173.5583333,-35.15333333,0 -173.13,-35.32333333,0 -172.7016667,-35.49,0 -172.2716667,-35.65333333,0 -171.8433333,-35.81666667,0 -171.415,-35.97666667,0 -170.9866667,-36.135,0 -170.5583333,-36.29166667,0 -170.1283333,-36.445,0 -169.7,-36.59666667,0 -169.27,-36.74666667,0 -168.84,-36.895,0 -168.4083333,-37.04,0 -167.9783333,-37.185,0 -167.545,-37.32666667000001,0 -167.1133333,-37.46500000000001,0 -166.68,-37.60333333,0 -166.245,-37.73833333,0 -165.81,-37.87166667,0 -165.3733333,-38.00166667,0 -164.9366667,-38.13166667,0 -164.4966667,-38.25833333,0 -164.0583333,-38.38333333000001,0 -163.6166667,-38.50666667,0 -163.175,-38.62666667,0 -162.7316667,-38.745,0 -162.2866667,-38.86166667,0 -161.84,-38.97666667,0 -161.3916667,-39.08833333,0 -160.9416667,-39.19833333,0 -160.49,-39.30666667000001,0 -160.0383333,-39.41333333,0 -159.5833333,-39.51666667,0 -159.1266667,-39.61833333,0 -158.6683333,-39.71666667,0 -158.2083333,-39.815,0 -157.745,-39.91,0 -157.2816667,-40.00166667,0 -156.815,-40.09333333,0 -156.3466667,-40.18,0 -155.875,-40.26666667,0 -155.4033333,-40.35,0 -154.9266667,-40.43166667,0 -154.45,-40.51166667,0 -153.97,-40.58833333,0 -153.4866667,-40.66166667000001,0 -153.0016667,-40.73333333,0 -152.5133333,-40.80333333,0 -152.0233333,-40.87,0 -151.53,-40.935,0 -151.0333333,-40.99833333,0 -150.535,-41.05833333,0 -150.0333333,-41.115,0 -149.5283333,-41.17,0 -149.02,-41.22166667,0 -148.51,-41.27166667000001,0 -147.995,-41.31833333,0 -147.4766667,-41.36166667,0 -146.9566667,-41.40333333,0 -146.4316667,-41.44333333,0 -145.905,-41.47833333,0 -145.3733333,-41.51166667,0 -144.8383333,-41.54333333,0 -144.2983333,-41.57,0 -143.7566667,-41.595,0 -143.21,-41.61666667,0 -142.6583333,-41.635,0 -142.1033333,-41.65166667,0 -141.545,-41.66333333,0 -140.9816667,-41.67333333,0 -140.4133333,-41.68,0 -139.84,-41.68166667,0 -139.2633333,-41.68166667,0 -138.6816667,-41.67833333,0 -138.0933333,-41.67166667,0 -137.5016667,-41.66,0 -136.905,-41.64666667,0 -136.3016667,-41.62833333,0 -135.6933333,-41.60833333,0 -135.0783333,-41.58333333,0 -134.4583333,-41.55333333,0 -133.8333333,-41.52,0 -133.2,-41.48333333,0 -132.5616667,-41.44333333,0 -131.915,-41.39833333,0 -131.2616667,-41.34833333,0 -130.6016667,-41.295,0 -129.935,-41.23666667,0 -129.2583333,-41.17333333,0 -128.575,-41.105,0 -127.8816667,-41.03166667,0 -127.1816667,-40.955,0 -126.47,-40.87166667,0 -125.75,-40.78333333,0 -125.02,-40.68833333,0 -124.2783333,-40.58833333,0 -123.5266667,-40.48166667,0 -122.7616667,-40.37,0 -121.985,-40.25166667,0 -121.195,-40.125,0 -120.39,-39.99333333,0 -119.5716667,-39.85333333,0 -118.7366667,-39.705,0 -117.8833333,-39.54833333,0 -117.0133333,-39.38333333,0 -116.1233333,-39.21,0 -115.2116667,-39.02666667,0 -114.2766667,-38.83166667,0 -113.3183333,-38.62666667,0 -112.3316667,-38.41,0 -111.315,-38.17833333,0 -110.265,-37.935,0 -109.1766667,-37.675,0 -108.0483333,-37.39833333,0 -106.8716667,-37.10166667,0 -105.6416667,-36.78333333,0 -104.3466667,-36.44166667,0 -102.98,-36.07166667,0 -101.5216667,-35.66666667,0 -99.95500000000001,-35.22166667,0 -98.24666667000001,-34.725,0 -96.35166667,-34.16166667,0 -94.18833333000001,-33.505,0 -91.59999999999999,-32.69833333,0 -88.15166667,-31.60166667,0 </coordinates>
			</LineString>
			<LineString>
				<tessellate>1</tessellate>
				<altitudeMode>clampedToGround</altitudeMode>
				<coordinates>
137.4433333,-14.09166667,0 141.1916667,-15.52666667,0 143.655,-16.52333333,0 145.6083333,-17.345,0 147.27,-18.06333333,0 148.7333333,-18.71166667,0 150.0533333,-19.30833333,0 151.265,-19.865,0 152.3866667,-20.39,0 153.4366667,-20.88833333,0 154.4266667,-21.36333333,0 155.365,-21.81833333,0 156.2583333,-22.25666667,0 157.1133333,-22.67833333000001,0 157.9333333,-23.08666667,0 158.7233333,-23.48333333,0 159.4866667,-23.86833333,0 160.2233333,-24.24333333,0 160.9383333,-24.60833333,0 161.6333333,-24.965,0 162.31,-25.31333333,0 162.97,-25.65333333,0 163.6133333,-25.98666667,0 164.2433333,-26.31166667,0 164.86,-26.63166667000001,0 165.4633333,-26.94666667,0 166.055,-27.25333333,0 166.6366667,-27.55666667,0 167.2083333,-27.85333333000001,0 167.7716667,-28.14666667,0 168.325,-28.43333333,0 168.87,-28.71666667,0 169.4083333,-28.99500000000001,0 169.94,-29.27,0 170.4633333,-29.54,0 170.9816667,-29.805,0 171.495,-30.06833333,0 172.0016667,-30.32666667,0 172.5033333,-30.58166667,0 173,-30.83333333,0 173.4916667,-31.08,0 173.98,-31.325,0 174.4633333,-31.56666667,0 174.9433333,-31.805,0 175.42,-32.04,0 175.8933333,-32.27166667,0 176.365,-32.50166667,0 176.8316667,-32.72833333,0 177.2966667,-32.95166667,0 177.7583333,-33.17166667,0 178.2183333,-33.39,0 178.6766667,-33.605,0 179.1333333,-33.81666667,0 179.5866667,-34.02666667,0 -179.96,-34.235,0 -179.51,-34.43833333000001,0 -179.06,-34.64166667,0 -178.6116667,-34.84166667,0 -178.165,-35.03833333,0 -177.7183333,-35.23333333,0 -177.2733333,-35.425,0 -176.8283333,-35.615,0 -176.385,-35.80333333,0 -175.9416667,-35.98833333,0 -175.4983333,-36.17166667,0 -175.0566667,-36.35333333,0 -174.6133333,-36.53166667,0 -174.1716667,-36.70666667,0 -173.73,-36.88166667,0 -173.2883333,-37.05333333,0 -172.845,-37.22166667,0 -172.4033333,-37.39,0 -171.9616667,-37.555,0 -171.5183333,-37.71666667,0 -171.075,-37.87833333,0 -170.63,-38.03666667,0 -170.1866667,-38.19333333,0 -169.7416667,-38.34666667,0 -169.295,-38.49833333,0 -168.8483333,-38.64833333,0 -168.4016667,-38.795,0 -167.9533333,-38.94166667,0 -167.5033333,-39.08333333,0 -167.0533333,-39.225,0 -166.6016667,-39.36333333,0 -166.1483333,-39.5,0 -165.6933333,-39.635,0 -165.2383333,-39.76666667000001,0 -164.7816667,-39.89666667000001,0 -164.3233333,-40.025,0 -163.8633333,-40.15,0 -163.4016667,-40.27333333,0 -162.9383333,-40.39333333,0 -162.4733333,-40.51333333,0 -162.0066667,-40.63,0 -161.5383333,-40.74333333,0 -161.0683333,-40.855,0 -160.595,-40.965,0 -160.1216667,-41.07333333,0 -159.645,-41.17833333,0 -159.1666667,-41.28000000000001,0 -158.6866667,-41.38166667,0 -158.2033333,-41.47833333,0 -157.7183333,-41.575,0 -157.2316667,-41.66833333,0 -156.7416667,-41.75833333,0 -156.25,-41.84666667,0 -155.755,-41.93333333,0 -155.2583333,-42.01666667,0 -154.7583333,-42.09833333,0 -154.255,-42.17666667,0 -153.75,-42.25166667,0 -153.2433333,-42.32500000000001,0 -152.7316667,-42.39666667,0 -152.2183333,-42.465,0 -151.7016667,-42.53,0 -151.1816667,-42.59333333,0 -150.6583333,-42.65333333,0 -150.1333333,-42.71166667,0 -149.6033333,-42.76666667,0 -149.0716667,-42.81833333,0 -148.5366667,-42.86666667,0 -147.9966667,-42.91333333,0 -147.455,-42.95666667,0 -146.9083333,-42.99833333,0 -146.3583333,-43.035,0 -145.805,-43.07,0 -145.2483333,-43.10166667000001,0 -144.6866667,-43.13,0 -144.1216667,-43.155,0 -143.5516667,-43.17833333,0 -142.9783333,-43.19666667,0 -142.4016667,-43.21333333,0 -141.82,-43.225,0 -141.2333333,-43.235,0 -140.6433333,-43.24000000000001,0 -140.0483333,-43.24333333,0 -139.4466667,-43.24166667,0 -138.8416667,-43.23666667,0 -138.2316667,-43.22833333,0 -137.6166667,-43.21666667,0 -136.9966667,-43.2,0 -136.3716667,-43.18166667,0 -135.74,-43.15666667,0 -135.1016667,-43.13,0 -134.46,-43.09833333000001,0 -133.81,-43.06166667,0 -133.155,-43.02166667,0 -132.4933333,-42.97833333,0 -131.8233333,-42.92833333,0 -131.1483333,-42.875,0 -130.465,-42.81833333,0 -129.775,-42.755,0 -129.0766667,-42.68666667,0 -128.37,-42.61333333,0 -127.655,-42.535,0 -126.9316667,-42.45166667,0 -126.2,-42.36333333,0 -125.4566667,-42.26833333,0 -124.705,-42.16833333,0 -123.9416667,-42.06166667,0 -123.1683333,-41.94833333,0 -122.3816667,-41.82833333,0 -121.5833333,-41.70166667,0 -120.7733333,-41.56833333000001,0 -119.9483333,-41.42833333,0 -119.1083333,-41.27833333,0 -118.2533333,-41.12166667000001,0 -117.38,-40.95666667,0 -116.49,-40.78166667,0 -115.5816667,-40.59833333,0 -114.65,-40.40333333,0 -113.6983333,-40.19833333,0 -112.72,-39.98166667,0 -111.715,-39.75333333,0 -110.6816667,-39.51,0 -109.6133333,-39.25333333,0 -108.51,-38.98,0 -107.365,-38.68833333000001,0 -106.1733333,-38.37833333,0 -104.9283333,-38.045,0 -103.62,-37.68666667,0 -102.24,-37.3,0 -100.7716667,-36.87666667,0 -99.19500000000001,-36.41333333,0 -97.48,-35.89666667,0 -95.58,-35.31166667,0 -93.42,-34.63166667,0 -90.84666667000001,-33.80333333,0 -87.45666667,-32.68666667,0 </coordinates>
			</LineString>
			<LineString>
				<tessellate>1</tessellate>
				<altitudeMode>clampedToGround</altitudeMode>
				<coordinates>
139.9733333,-14.38833333,0 142.9266667,-15.53666667,0 145.1116667,-16.425,0 146.915,-17.18333333,0 148.4766667,-17.85666667,0 149.87,-18.47166667,0 151.1366667,-19.04166667000001,0 152.3033333,-19.575,0 153.3916667,-20.08,0 154.4133333,-20.56166667,0 155.3766667,-21.02,0 156.2933333,-21.46166667,0 157.1683333,-21.88666667,0 158.0066667,-22.29666667,0 158.8116667,-22.695,0 159.5883333,-23.08,0 160.3383333,-23.455,0 161.065,-23.82166667,0 161.7683333,-24.17666667,0 162.455,-24.525,0 163.1216667,-24.865,0 163.7716667,-25.19666667,0 164.4083333,-25.52166667,0 165.03,-25.84166667,0 165.6383333,-26.15333333,0 166.235,-26.46,0 166.82,-26.76166667,0 167.395,-27.05833333,0 167.96,-27.34833333,0 168.5166667,-27.635,0 169.0633333,-27.915,0 169.6033333,-28.19333333,0 170.1366667,-28.465,0 170.6616667,-28.73333333,0 171.18,-28.99833333,0 171.6916667,-29.25833333,0 172.1983333,-29.515,0 172.7,-29.76833333,0 173.1966667,-30.01833333,0 173.6883333,-30.26333333,0 174.175,-30.50666667,0 174.6566667,-30.74666667,0 175.1366667,-30.98333333,0 175.61,-31.21666667,0 176.0816667,-31.44666667,0 176.55,-31.67333333,0 177.015,-31.89833333,0 177.4783333,-32.12,0 177.9366667,-32.33833333,0 178.3933333,-32.555,0 178.8483333,-32.76833333,0 179.3016667,-32.97833333,0 179.7516667,-33.18666667,0 -179.8,-33.39166667,0 -179.3533333,-33.595,0 -178.9083333,-33.795,0 -178.4633333,-33.99333333,0 -178.0216667,-34.18833333,0 -177.58,-34.38166667,0 -177.14,-34.57333333,0 -176.7016667,-34.76166667,0 -176.2633333,-34.94666667,0 -175.825,-35.13166667,0 -175.3883333,-35.31333333,0 -174.9516667,-35.49166667000001,0 -174.515,-35.66833333,0 -174.08,-35.84333333,0 -173.645,-36.01666667,0 -173.2083333,-36.18666667,0 -172.7733333,-36.355,0 -172.3383333,-36.52,0 -171.9033333,-36.68333333,0 -171.4683333,-36.845,0 -171.0316667,-37.00500000000001,0 -170.5966667,-37.16166667,0 -170.16,-37.31666667,0 -169.7233333,-37.47,0 -169.285,-37.62166667,0 -168.8466667,-37.77000000000001,0 -168.4083333,-37.91666667,0 -167.9683333,-38.06166667,0 -167.5283333,-38.20333333,0 -167.0866667,-38.34333333,0 -166.6433333,-38.48166667,0 -166.2,-38.61666667,0 -165.7566667,-38.75166667,0 -165.31,-38.88333333,0 -164.8633333,-39.01166667,0 -164.415,-39.14000000000001,0 -163.9666667,-39.265,0 -163.515,-39.38833333,0 -163.0633333,-39.50833333,0 -162.6083333,-39.62833333,0 -162.1533333,-39.745,0 -161.6966667,-39.85833333,0 -161.2366667,-39.97,0 -160.7766667,-40.08000000000001,0 -160.315,-40.18833333,0 -159.85,-40.29333333,0 -159.3833333,-40.39666667,0 -158.915,-40.49833333000001,0 -158.445,-40.59666667,0 -157.9733333,-40.69333333,0 -157.4983333,-40.78833333,0 -157.0216667,-40.88,0 -156.5433333,-40.96833333,0 -156.0616667,-41.05666667,0 -155.5783333,-41.14166667000001,0 -155.0916667,-41.22333333,0 -154.6033333,-41.30333333,0 -154.1133333,-41.38166667,0 -153.62,-41.45666667,0 -153.1233333,-41.52833333,0 -152.6233333,-41.59833333,0 -152.1216667,-41.66666667,0 -151.6166667,-41.73166667000001,0 -151.11,-41.795,0 -150.5983333,-41.855,0 -150.085,-41.91166667,0 -149.5683333,-41.96666667,0 -149.0483333,-42.01833333,0 -148.525,-42.06833333,0 -148,-42.115,0 -147.47,-42.15833333,0 -146.9366667,-42.20000000000001,0 -146.4,-42.23833333,0 -145.8583333,-42.27333333,0 -145.315,-42.30666667,0 -144.7666667,-42.335,0 -144.215,-42.36166667000001,0 -143.66,-42.385,0 -143.1,-42.40666667,0 -142.5366667,-42.42333333,0 -141.9683333,-42.43833333,0 -141.395,-42.44833333,0 -140.8183333,-42.45666667,0 -140.2366667,-42.46,0 -139.6516667,-42.46166667,0 -139.06,-42.45833333,0 -138.465,-42.45333333,0 -137.8633333,-42.44333333,0 -137.2583333,-42.43,0 -136.6466667,-42.41333333,0 -136.03,-42.39333333,0 -135.4066667,-42.36833333,0 -134.7783333,-42.34,0 -134.145,-42.30833333,0 -133.5033333,-42.27166667,0 -132.8566667,-42.23166667,0 -132.2033333,-42.18666667000001,0 -131.5433333,-42.13666667,0 -130.875,-42.08333333,0 -130.2,-42.025,0 -129.5166667,-41.96166667,0 -128.8266667,-41.895,0 -128.1283333,-41.82166667,0 -127.42,-41.74333333000001,0 -126.7033333,-41.66,0 -125.9766667,-41.57166667,0 -125.2416667,-41.47666667,0 -124.495,-41.37666667,0 -123.7366667,-41.27,0 -122.9683333,-41.15833333,0 -122.1883333,-41.03833333,0 -121.3933333,-40.91333333,0 -120.5866667,-40.78,0 -119.765,-40.64,0 -118.9283333,-40.49166667,0 -118.075,-40.335,0 -117.2033333,-40.17,0 -116.3133333,-39.995,0 -115.405,-39.81166667,0 -114.4733333,-39.61666667000001,0 -113.5166667,-39.41166667,0 -112.535,-39.195,0 -111.525,-38.965,0 -110.4833333,-38.72166667,0 -109.4083333,-38.46333333,0 -108.2916667,-38.18833333,0 -107.1333333,-37.895,0 -105.9233333,-37.58166667,0 -104.655,-37.245,0 -103.32,-36.88,0 -101.905,-36.485,0 -100.39,-36.05333333,0 -98.75333333,-35.575,0 -96.95833333,-35.03666667000001,0 -94.94333333000002,-34.42166667000001,0 -92.60166667,-33.68833333,0 -89.69333333000002,-32.75666667,0 -85.34333332999999,-31.33,0 </coordinates>
			</LineString>
		</MultiGeometry>
	</Placemark>
	<Folder>
		<name>Time and duration</name>
		<Placemark>
			<name>20:37   7°  1m53.4s</name>
			<Style>
				<IconStyle>
					<scale>0.25</scale>
					<Icon>
						<href>http://maps.google.com/mapfiles/kml/pal4/icon41.png</href>
					</Icon>
				</IconStyle>
			</Style>
			<Point>
				<tessellate>1</tessellate>
				<altitudeMode>clampedToGround</altitudeMode>
				<coordinates>139.9733333,-14.3883333,0</coordinates>
			</Point>
		</Placemark>
		<Placemark>
			<name>20:40  15°  2m08.2s</name>
			<Style>
				<IconStyle>
					<scale>0.25</scale>
					<Icon>
						<href>http://maps.google.com/mapfiles/kml/pal4/icon41.png</href>
					</Icon>
				</IconStyle>
			</Style>
			<Point>
				<tessellate>1</tessellate>
				<altitudeMode>clampedToGround</altitudeMode>
				<coordinates>146.915,-17.1833333,0</coordinates>
			</Point>
		</Placemark>
		<Placemark>
			<name>20:45  23°  2m24.1s</name>
			<Style>
				<IconStyle>
					<scale>0.25</scale>
					<Icon>
						<href>http://maps.google.com/mapfiles/kml/pal4/icon41.png</href>
					</Icon>
				</IconStyle>
			</Style>
			<Point>
				<tessellate>1</tessellate>
				<altitudeMode>clampedToGround</altitudeMode>
				<coordinates>153.3916667,-20.08,0</coordinates>
			</Point>
		</Placemark>
		<Placemark>
			<name>20:50  29°  2m36.5s</name>
			<Style>
				<IconStyle>
					<scale>0.25</scale>
					<Icon>
						<href>http://maps.google.com/mapfiles/kml/pal4/icon41.png</href>
					</Icon>
				</IconStyle>
			</Style>
			<Point>
				<tessellate>1</tessellate>
				<altitudeMode>clampedToGround</altitudeMode>
				<coordinates>158.0066667,-22.2966667,0</coordinates>
			</Point>
		</Placemark>
		<Placemark>
			<name>20:55  34°  2m47.2s</name>
			<Style>
				<IconStyle>
					<scale>0.25</scale>
					<Icon>
						<href>http://maps.google.com/mapfiles/kml/pal4/icon41.png</href>
					</Icon>
				</IconStyle>
			</Style>
			<Point>
				<tessellate>1</tessellate>
				<altitudeMode>clampedToGround</altitudeMode>
				<coordinates>161.7683333,-24.1766667,0</coordinates>
			</Point>
		</Placemark>
		<Placemark>
			<name>21:00  38°  2m56.8s</name>
			<Style>
				<IconStyle>
					<scale>0.25</scale>
					<Icon>
						<href>http://maps.google.com/mapfiles/kml/pal4/icon41.png</href>
					</Icon>
				</IconStyle>
			</Style>
			<Point>
				<tessellate>1</tessellate>
				<altitudeMode>clampedToGround</altitudeMode>
				<coordinates>165.03,-25.8416667,0</coordinates>
			</Point>
		</Placemark>
		<Placemark>
			<name>21:05  42°  3m05.4s</name>
			<Style>
				<IconStyle>
					<scale>0.25</scale>
					<Icon>
						<href>http://maps.google.com/mapfiles/kml/pal4/icon41.png</href>
					</Icon>
				</IconStyle>
			</Style>
			<Point>
				<tessellate>1</tessellate>
				<altitudeMode>clampedToGround</altitudeMode>
				<coordinates>167.96,-27.3483333,0</coordinates>
			</Point>
		</Placemark>
		<Placemark>
			<name>21:10  45°  3m13.4s</name>
			<Style>
				<IconStyle>
					<scale>0.25</scale>
					<Icon>
						<href>http://maps.google.com/mapfiles/kml/pal4/icon41.png</href>
					</Icon>
				</IconStyle>
			</Style>
			<Point>
				<tessellate>1</tessellate>
				<altitudeMode>clampedToGround</altitudeMode>
				<coordinates>170.6616667,-28.7333333,0</coordinates>
			</Point>
		</Placemark>
		<Placemark>
			<name>21:15  48°  3m20.6s</name>
			<Style>
				<IconStyle>
					<scale>0.25</scale>
					<Icon>
						<href>http://maps.google.com/mapfiles/kml/pal4/icon41.png</href>
					</Icon>
				</IconStyle>
			</Style>
			<Point>
				<tessellate>1</tessellate>
				<altitudeMode>clampedToGround</altitudeMode>
				<coordinates>173.1966667,-30.0183333,0</coordinates>
			</Point>
		</Placemark>
		<Placemark>
			<name>21:20  51°  3m27.3s</name>
			<Style>
				<IconStyle>
					<scale>0.25</scale>
					<Icon>
						<href>http://maps.google.com/mapfiles/kml/pal4/icon41.png</href>
					</Icon>
				</IconStyle>
			</Style>
			<Point>
				<tessellate>1</tessellate>
				<altitudeMode>clampedToGround</altitudeMode>
				<coordinates>175.61,-31.21666670000001,0</coordinates>
			</Point>
		</Placemark>
		<Placemark>
			<name>21:25  54°  3m33.4s</name>
			<Style>
				<IconStyle>
					<scale>0.25</scale>
					<Icon>
						<href>http://maps.google.com/mapfiles/kml/pal4/icon41.png</href>
					</Icon>
				</IconStyle>
			</Style>
			<Point>
				<tessellate>1</tessellate>
				<altitudeMode>clampedToGround</altitudeMode>
				<coordinates>177.9366667,-32.3383333,0</coordinates>
			</Point>
		</Placemark>
		<Placemark>
			<name>21:30  57°  3m38.8s</name>
			<Style>
				<IconStyle>
					<scale>0.25</scale>
					<Icon>
						<href>http://maps.google.com/mapfiles/kml/pal4/icon41.png</href>
					</Icon>
				</IconStyle>
			</Style>
			<Point>
				<tessellate>1</tessellate>
				<altitudeMode>clampedToGround</altitudeMode>
				<coordinates>-179.8,-33.3916667,0</coordinates>
			</Point>
		</Placemark>
		<Placemark>
			<name>21:35  59°  3m43.8s</name>
			<Style>
				<IconStyle>
					<scale>0.25</scale>
					<Icon>
						<href>http://maps.google.com/mapfiles/kml/pal4/icon41.png</href>
					</Icon>
				</IconStyle>
			</Style>
			<Point>
				<tessellate>1</tessellate>
				<altitudeMode>clampedToGround</altitudeMode>
				<coordinates>-177.58,-34.3816667,0</coordinates>
			</Point>
		</Placemark>
		<Placemark>
			<name>21:40  61°  3m48.1s</name>
			<Style>
				<IconStyle>
					<scale>0.25</scale>
					<Icon>
						<href>http://maps.google.com/mapfiles/kml/pal4/icon41.png</href>
					</Icon>
				</IconStyle>
			</Style>
			<Point>
				<tessellate>1</tessellate>
				<altitudeMode>clampedToGround</altitudeMode>
				<coordinates>-175.3883333,-35.3133333,0</coordinates>
			</Point>
		</Placemark>
		<Placemark>
			<name>21:45  63°  3m51.9s</name>
			<Style>
				<IconStyle>
					<scale>0.25</scale>
					<Icon>
						<href>http://maps.google.com/mapfiles/kml/pal4/icon41.png</href>
					</Icon>
				</IconStyle>
			</Style>
			<Point>
				<tessellate>1</tessellate>
				<altitudeMode>clampedToGround</altitudeMode>
				<coordinates>-173.2083333,-36.1866667,0</coordinates>
			</Point>
		</Placemark>
		<Placemark>
			<name>21:50  65°  3m55.1s</name>
			<Style>
				<IconStyle>
					<scale>0.25</scale>
					<Icon>
						<href>http://maps.google.com/mapfiles/kml/pal4/icon41.png</href>
					</Icon>
				</IconStyle>
			</Style>
			<Point>
				<tessellate>1</tessellate>
				<altitudeMode>clampedToGround</altitudeMode>
				<coordinates>-171.0316667,-37.00500000000001,0</coordinates>
			</Point>
		</Placemark>
		<Placemark>
			<name>21:55  66°  3m57.8s</name>
			<Style>
				<IconStyle>
					<scale>0.25</scale>
					<Icon>
						<href>http://maps.google.com/mapfiles/kml/pal4/icon41.png</href>
					</Icon>
				</IconStyle>
			</Style>
			<Point>
				<tessellate>1</tessellate>
				<altitudeMode>clampedToGround</altitudeMode>
				<coordinates>-168.8466667,-37.77000000000001,0</coordinates>
			</Point>
		</Placemark>
		<Placemark>
			<name>22:00  67°  3m59.8s</name>
			<Style>
				<IconStyle>
					<scale>0.25</scale>
					<Icon>
						<href>http://maps.google.com/mapfiles/kml/pal4/icon41.png</href>
					</Icon>
				</IconStyle>
			</Style>
			<Point>
				<tessellate>1</tessellate>
				<altitudeMode>clampedToGround</altitudeMode>
				<coordinates>-166.6433333,-38.4816667,0</coordinates>
			</Point>
		</Placemark>
		<Placemark>
			<name>22:05  68°  4m01.2s</name>
			<Style>
				<IconStyle>
					<scale>0.25</scale>
					<Icon>
						<href>http://maps.google.com/mapfiles/kml/pal4/icon41.png</href>
					</Icon>
				</IconStyle>
			</Style>
			<Point>
				<tessellate>1</tessellate>
				<altitudeMode>clampedToGround</altitudeMode>
				<coordinates>-164.415,-39.14000000000001,0</coordinates>
			</Point>
		</Placemark>
		<Placemark>
			<name>22:10  68°  4m02.0s</name>
			<Style>
				<IconStyle>
					<scale>0.25</scale>
					<Icon>
						<href>http://maps.google.com/mapfiles/kml/pal4/icon41.png</href>
					</Icon>
				</IconStyle>
			</Style>
			<Point>
				<tessellate>1</tessellate>
				<altitudeMode>clampedToGround</altitudeMode>
				<coordinates>-162.1533333,-39.745,0</coordinates>
			</Point>
		</Placemark>
		<Placemark>
			<name>22:15  68°  4m02.2s</name>
			<Style>
				<IconStyle>
					<scale>0.25</scale>
					<Icon>
						<href>http://maps.google.com/mapfiles/kml/pal4/icon41.png</href>
					</Icon>
				</IconStyle>
			</Style>
			<Point>
				<tessellate>1</tessellate>
				<altitudeMode>clampedToGround</altitudeMode>
				<coordinates>-159.85,-40.2933333,0</coordinates>
			</Point>
		</Placemark>
		<Placemark>
			<name>22:20  67°  4m01.8s</name>
			<Style>
				<IconStyle>
					<scale>0.25</scale>
					<Icon>
						<href>http://maps.google.com/mapfiles/kml/pal4/icon41.png</href>
					</Icon>
				</IconStyle>
			</Style>
			<Point>
				<tessellate>1</tessellate>
				<altitudeMode>clampedToGround</altitudeMode>
				<coordinates>-157.4983333,-40.7883333,0</coordinates>
			</Point>
		</Placemark>
		<Placemark>
			<name>22:25  67°  4m00.7s</name>
			<Style>
				<IconStyle>
					<scale>0.25</scale>
					<Icon>
						<href>http://maps.google.com/mapfiles/kml/pal4/icon41.png</href>
					</Icon>
				</IconStyle>
			</Style>
			<Point>
				<tessellate>1</tessellate>
				<altitudeMode>clampedToGround</altitudeMode>
				<coordinates>-155.0916667,-41.2233333,0</coordinates>
			</Point>
		</Placemark>
		<Placemark>
			<name>22:30  65°  3m59.0s</name>
			<Style>
				<IconStyle>
					<scale>0.25</scale>
					<Icon>
						<href>http://maps.google.com/mapfiles/kml/pal4/icon41.png</href>
					</Icon>
				</IconStyle>
			</Style>
			<Point>
				<tessellate>1</tessellate>
				<altitudeMode>clampedToGround</altitudeMode>
				<coordinates>-152.6233333,-41.5983333,0</coordinates>
			</Point>
		</Placemark>
		<Placemark>
			<name>22:35  64°  3m56.6s</name>
			<Style>
				<IconStyle>
					<scale>0.25</scale>
					<Icon>
						<href>http://maps.google.com/mapfiles/kml/pal4/icon41.png</href>
					</Icon>
				</IconStyle>
			</Style>
			<Point>
				<tessellate>1</tessellate>
				<altitudeMode>clampedToGround</altitudeMode>
				<coordinates>-150.085,-41.9116667,0</coordinates>
			</Point>
		</Placemark>
		<Placemark>
			<name>22:40  62°  3m53.7s</name>
			<Style>
				<IconStyle>
					<scale>0.25</scale>
					<Icon>
						<href>http://maps.google.com/mapfiles/kml/pal4/icon41.png</href>
					</Icon>
				</IconStyle>
			</Style>
			<Point>
				<tessellate>1</tessellate>
				<altitudeMode>clampedToGround</altitudeMode>
				<coordinates>-147.47,-42.15833330000001,0</coordinates>
			</Point>
		</Placemark>
		<Placemark>
			<name>22:45  60°  3m50.0s</name>
			<Style>
				<IconStyle>
					<scale>0.25</scale>
					<Icon>
						<href>http://maps.google.com/mapfiles/kml/pal4/icon41.png</href>
					</Icon>
				</IconStyle>
			</Style>
			<Point>
				<tessellate>1</tessellate>
				<altitudeMode>clampedToGround</altitudeMode>
				<coordinates>-144.7666667,-42.335,0</coordinates>
			</Point>
		</Placemark>
		<Placemark>
			<name>22:50  58°  3m45.8s</name>
			<Style>
				<IconStyle>
					<scale>0.25</scale>
					<Icon>
						<href>http://maps.google.com/mapfiles/kml/pal4/icon41.png</href>
					</Icon>
				</IconStyle>
			</Style>
			<Point>
				<tessellate>1</tessellate>
				<altitudeMode>clampedToGround</altitudeMode>
				<coordinates>-141.9683333,-42.4383333,0</coordinates>
			</Point>
		</Placemark>
		<Placemark>
			<name>22:55  56°  3m40.9s</name>
			<Style>
				<IconStyle>
					<scale>0.25</scale>
					<Icon>
						<href>http://maps.google.com/mapfiles/kml/pal4/icon41.png</href>
					</Icon>
				</IconStyle>
			</Style>
			<Point>
				<tessellate>1</tessellate>
				<altitudeMode>clampedToGround</altitudeMode>
				<coordinates>-139.06,-42.4583333,0</coordinates>
			</Point>
		</Placemark>
		<Placemark>
			<name>23:00  53°  3m35.3s</name>
			<Style>
				<IconStyle>
					<scale>0.25</scale>
					<Icon>
						<href>http://maps.google.com/mapfiles/kml/pal4/icon41.png</href>
					</Icon>
				</IconStyle>
			</Style>
			<Point>
				<tessellate>1</tessellate>
				<altitudeMode>clampedToGround</altitudeMode>
				<coordinates>-136.03,-42.3933333,0</coordinates>
			</Point>
		</Placemark>
		<Placemark>
			<name>23:05  50°  3m29.1s</name>
			<Style>
				<IconStyle>
					<scale>0.25</scale>
					<Icon>
						<href>http://maps.google.com/mapfiles/kml/pal4/icon41.png</href>
					</Icon>
				</IconStyle>
			</Style>
			<Point>
				<tessellate>1</tessellate>
				<altitudeMode>clampedToGround</altitudeMode>
				<coordinates>-132.8566667,-42.2316667,0</coordinates>
			</Point>
		</Placemark>
		<Placemark>
			<name>23:10  47°  3m22.3s</name>
			<Style>
				<IconStyle>
					<scale>0.25</scale>
					<Icon>
						<href>http://maps.google.com/mapfiles/kml/pal4/icon41.png</href>
					</Icon>
				</IconStyle>
			</Style>
			<Point>
				<tessellate>1</tessellate>
				<altitudeMode>clampedToGround</altitudeMode>
				<coordinates>-129.5166667,-41.9616667,0</coordinates>
			</Point>
		</Placemark>
		<Placemark>
			<name>23:15  44°  3m14.7s</name>
			<Style>
				<IconStyle>
					<scale>0.25</scale>
					<Icon>
						<href>http://maps.google.com/mapfiles/kml/pal4/icon41.png</href>
					</Icon>
				</IconStyle>
			</Style>
			<Point>
				<tessellate>1</tessellate>
				<altitudeMode>clampedToGround</altitudeMode>
				<coordinates>-125.9766667,-41.57166670000001,0</coordinates>
			</Point>
		</Placemark>
		<Placemark>
			<name>23:20  41°  3m06.4s</name>
			<Style>
				<IconStyle>
					<scale>0.25</scale>
					<Icon>
						<href>http://maps.google.com/mapfiles/kml/pal4/icon41.png</href>
					</Icon>
				</IconStyle>
			</Style>
			<Point>
				<tessellate>1</tessellate>
				<altitudeMode>clampedToGround</altitudeMode>
				<coordinates>-122.1883333,-41.0383333,0</coordinates>
			</Point>
		</Placemark>
		<Placemark>
			<name>23:25  37°  2m57.2s</name>
			<Style>
				<IconStyle>
					<scale>0.25</scale>
					<Icon>
						<href>http://maps.google.com/mapfiles/kml/pal4/icon41.png</href>
					</Icon>
				</IconStyle>
			</Style>
			<Point>
				<tessellate>1</tessellate>
				<altitudeMode>clampedToGround</altitudeMode>
				<coordinates>-118.075,-40.335,0</coordinates>
			</Point>
		</Placemark>
		<Placemark>
			<name>23:30  32°  2m47.1s</name>
			<Style>
				<IconStyle>
					<scale>0.25</scale>
					<Icon>
						<href>http://maps.google.com/mapfiles/kml/pal4/icon41.png</href>
					</Icon>
				</IconStyle>
			</Style>
			<Point>
				<tessellate>1</tessellate>
				<altitudeMode>clampedToGround</altitudeMode>
				<coordinates>-113.5166667,-39.4116667,0</coordinates>
			</Point>
		</Placemark>
		<Placemark>
			<name>23:35  27°  2m35.6s</name>
			<Style>
				<IconStyle>
					<scale>0.25</scale>
					<Icon>
						<href>http://maps.google.com/mapfiles/kml/pal4/icon41.png</href>
					</Icon>
				</IconStyle>
			</Style>
			<Point>
				<tessellate>1</tessellate>
				<altitudeMode>clampedToGround</altitudeMode>
				<coordinates>-108.2916667,-38.1883333,0</coordinates>
			</Point>
		</Placemark>
		<Placemark>
			<name>23:40  21°  2m21.9s</name>
			<Style>
				<IconStyle>
					<scale>0.25</scale>
					<Icon>
						<href>http://maps.google.com/mapfiles/kml/pal4/icon41.png</href>
					</Icon>
				</IconStyle>
			</Style>
			<Point>
				<tessellate>1</tessellate>
				<altitudeMode>clampedToGround</altitudeMode>
				<coordinates>-101.905,-36.485,0</coordinates>
			</Point>
		</Placemark>
		<Placemark>
			<name>23:45  12°  2m03.5s</name>
			<Style>
				<IconStyle>
					<scale>0.25</scale>
					<Icon>
						<href>http://maps.google.com/mapfiles/kml/pal4/icon41.png</href>
					</Icon>
				</IconStyle>
			</Style>
			<Point>
				<tessellate>1</tessellate>
				<altitudeMode>clampedToGround</altitudeMode>
				<coordinates>-92.60166667,-33.6883333,0</coordinates>
			</Point>
		</Placemark>
		<Placemark>
			<name>23:47  5°   1m50.5s</name>
			<Style>
				<IconStyle>
					<scale>0.25</scale>
					<Icon>
						<href>http://maps.google.com/mapfiles/kml/pal4/icon41.png</href>
					</Icon>
				</IconStyle>
			</Style>
			<Point>
				<tessellate>1</tessellate>
				<altitudeMode>clampedToGround</altitudeMode>
				<coordinates>-85.34333332999999,-31.33,0</coordinates>
			</Point>
		</Placemark>
	</Folder>
</Folder>
</kml>